C:\Java\Spring Boot Desktop\PackageService\src\main\java\com\skillup\packageservice\controller\PackageResource.java
C:\Java\Spring Boot Desktop\PackageService\src\main\java\com\skillup\packageservice\entity\Package.java
C:\Java\Spring Boot Desktop\PackageService\src\main\java\com\skillup\packageservice\PackageServiceApplication.java
C:\Java\Spring Boot Desktop\PackageService\src\main\java\com\skillup\packageservice\entity\Address.java
C:\Java\Spring Boot Desktop\PackageService\src\main\java\com\skillup\packageservice\entity\Item.java
C:\Java\Spring Boot Desktop\PackageService\src\main\java\com\skillup\packageservice\entity\ItemAddress.java
C:\Java\Spring Boot Desktop\PackageService\src\main\java\com\skillup\packageservice\util\PackageServiceUtils.java
C:\Java\Spring Boot Desktop\PackageService\src\main\java\com\skillup\packageservice\util\StateZone.java
